net\techu\ProductosV4Controller.class
net\techu\ProductosController.class
net\techu\SaludoController.class
net\techu\data\ProductoMongo.class
com\api\formacion\FormacionApplication.class
net\techu\BeanPersonalizacion.class
net\techu\data\ProductoRepositorio.class
net\techu\BeanContexto.class
net\techu\ProductosV3Controller.class
net\techu\TiendaApplication.class
net\techu\ProductosV2Controller.class
net\techu\Producto.class
